{
    "texture": "Bull",
    "anim": {
        "run": {
            "width": 177,
            "height": 201,
            "frameStart": 1,
            "frameEnd": 8,
            "frameTime": 5,
            "radius": 65
        },
        "attack": {
            "width": 177,
            "height": 201,
            "frameStart": 11,
            "frameEnd": 21,
            "frameTime": 0.1,
            "radius": 50
        },
        "death": {
            "width": 177,
            "height": 201,
            "frameStart": 21,
            "frameEnd": 26,
            "frameTime": 0.1,
            "radius": 50
        }
    },
    "stats": {
        "HP": 30,
        "damage": 10,
        "speed": 40,
        "attackSpeed": 1,
        "resist": [
            {
                "type": "Fire",
                "value": 0
            },
            {
                "type": "Cold",
                "value": 1
            },
            {
                "type": "Lightning",
                "value": 0
            },
            {
                "type": "Earth",
                "value": 0
            }
        ]
    }
}